Data manipulation with dplyr II
…
To accomplish this, you will need to manipulate the data using both mutate() and bind_rows(). Plan how you will do this first, and then implement below. Your final tibble should be exported to a CSV simply called algae.csv. In addition, if you do NOT print your final tibble, then you WILL LOSE POINTS - you must ALWAYS LOOK AT YOUR DATA!!!

## This code chunk should read in, save, print the datasets only
high <- read_csv(paste0(path_to_data, "algae_hightide.csv"))

## Parsed with column specification:
## cols(
##   herbivores = col_character(),
##   area = col_double()
## )

high

## # A tibble: 32 x 2
##    herbivores   area
##    <chr>       <dbl>
##  1 no          0.707
##  2 no         25.0  
##  3 no         46.6  
##  4 no          0.707
##  5 no          5.14 
##  6 no          6.18 
##  7 no         47.0  
##  8 no         22.9  
##  9 no         19.4  
## 10 no         37.1  
## #  with 22 more rows

low <- read_csv(paste0(path_to_data, "algae_lowtide.csv"))

## Parsed with column specification:
## cols(
##   herbivores = col_character(),
##   area = col_double()
## )

low

## # A tibble: 32 x 2
##    herbivores  area
##    <chr>      <dbl>
##  1 no          9.41
##  2 no         34.5 
##  3 no         46.7 
##  4 no         16.6 
##  5 no         24.4 
##  6 no         38.4 
##  7 no         33.8 
##  8 no         61.1 
##  9 no         35.5 
## 10 no         46.2 
## #  with 22 more rows

#Use 'paste0' to attach two strings together without spaces.

## This code chunk should perform the analysis, and export the final CSV
low %>%
  mutate(tide = "low") -> low_newtidecol

## mutate: new variable 'tide' with one unique value and 0% NA

low_newtidecol

## # A tibble: 32 x 3
##    herbivores  area tide 
##    <chr>      <dbl> <chr>
##  1 no          9.41 low  
##  2 no         34.5  low  
##  3 no         46.7  low  
##  4 no         16.6  low  
##  5 no         24.4  low  
##  6 no         38.4  low  
##  7 no         33.8  low  
##  8 no         61.1  low  
##  9 no         35.5  low  
## 10 no         46.2  low  
## #  with 22 more rows

high %>%
  mutate(tide = "high") -> high_newtidecol

## mutate: new variable 'tide' with one unique value and 0% NA

high_newtidecol

## # A tibble: 32 x 3
##    herbivores   area tide 
##    <chr>       <dbl> <chr>
##  1 no          0.707 high 
##  2 no         25.0   high 
##  3 no         46.6   high 
##  4 no          0.707 high 
##  5 no          5.14  high 
##  6 no          6.18  high 
##  7 no         47.0   high 
##  8 no         22.9   high 
##  9 no         19.4   high 
## 10 no         37.1   high 
## #  with 22 more rows

bind_rows(low_newtidecol, high_newtidecol) -> algae_full
algae_full

## # A tibble: 64 x 3
##    herbivores  area tide 
##    <chr>      <dbl> <chr>
##  1 no          9.41 low  
##  2 no         34.5  low  
##  3 no         46.7  low  
##  4 no         16.6  low  
##  5 no         24.4  low  
##  6 no         38.4  low  
##  7 no         33.8  low  
##  8 no         61.1  low  
##  9 no         35.5  low  
## 10 no         46.2  low  
## #  with 54 more rows
…
pima

## # A tibble: 752 x 9
##    npreg glucose   dbp  skin insulin   bmi pedigree   age diabetic
##    <dbl>   <dbl> <dbl> <dbl>   <dbl> <dbl>    <dbl> <dbl> <chr>   
##  1     6     148    72    35       0  33.6    0.627    50 Yes     
##  2     1      85    66    29       0  26.6    0.351    31 No      
##  3     8     183    64     0       0  23.3    0.672    32 Yes     
##  4     1      89    66    23      94  28.1    0.167    21 No      
##  5     0     137    40    35     168  43.1    2.29     33 Yes     
##  6     5     116    74     0       0  25.6    0.201    30 No      
##  7     3      78    50    32      88  31      0.248    26 Yes     
##  8    10     115     0     0       0  35.3    0.134    29 No      
##  9     2     197    70    45     543  30.5    0.158    53 Yes     
## 10     4     110    92     0       0  37.6    0.191    30 No      
## #  with 742 more rows
…
