Data manipulation with dplyr
…
This dataset contains data from an experiment on the cold tolerance of the grass species Echinochloa crus-galli. The CO2 uptake of six plants from Quebec and six plants from Mississippi was measured at several levels of ambient CO2 concentration. Half the plants of each type were chilled overnight before the experiment was conducted.

Messages from tidylog

To assist in learning dplyr (and more packages coming soon), we will also be using the (pre-installed for you) library, tidylog. As you can see in the setup R chunk of this document, tidylog has been loaded for you. This fairly amazing library provides you with direct feedback about what goes on under the hood of tidyverse operations.

## Obtain all rows where the plant is from Quebec
CO2_tibble %>%
  filter(Type == "Quebec")

## filter: removed 42 rows (50%), 42 rows remaining

## # A tibble: 42 x 5
##    Plant Type   Treatment   conc uptake
##    <ord> <fct>  <fct>      <dbl>  <dbl>
##  1 Qn1   Quebec nonchilled    95   16  
##  2 Qn1   Quebec nonchilled   175   30.4
##  3 Qn1   Quebec nonchilled   250   34.8
##  4 Qn1   Quebec nonchilled   350   37.2
##  5 Qn1   Quebec nonchilled   500   35.3
##  6 Qn1   Quebec nonchilled   675   39.2
##  7 Qn1   Quebec nonchilled  1000   39.7
##  8 Qn2   Quebec nonchilled    95   13.6
##  9 Qn2   Quebec nonchilled   175   27.3
## 10 Qn2   Quebec nonchilled   250   37.1
## #  with 32 more rows
…
Perform all exercises using the %>% operator. You will probably type it as >%> sometimes, so expect this bug ;)

In addition, for any tasks which require multiple steps (a chain of dplyr commands), YOU REALLY REALLY REALLY SHOULD to do each step one at a time, examine its output, and then proceed to tack on the next step.

Question 1

Subset the data using filter() to contain only observations (rows) from Mississippi (Hint: make sure to spell it right!).

CO2_tibble %>%
  filter(Type == "Mississippi") #Shows only the rows containing Mississippi, the '==' create a TRUE/FALSE argument.

## filter: removed 42 rows (50%), 42 rows remaining

## # A tibble: 42 x 5
##    Plant Type        Treatment   conc uptake
##    <ord> <fct>       <fct>      <dbl>  <dbl>
##  1 Mn1   Mississippi nonchilled    95   10.6
##  2 Mn1   Mississippi nonchilled   175   19.2
##  3 Mn1   Mississippi nonchilled   250   26.2
##  4 Mn1   Mississippi nonchilled   350   30  
##  5 Mn1   Mississippi nonchilled   500   30.9
##  6 Mn1   Mississippi nonchilled   675   32.4
##  7 Mn1   Mississippi nonchilled  1000   35.5
##  8 Mn2   Mississippi nonchilled    95   12  
##  9 Mn2   Mississippi nonchilled   175   22  
## 10 Mn2   Mississippi nonchilled   250   30.6
## #  with 32 more rows

Question 2

Subset the data using filter() to contain only observations from Mississippi exposed to chilled environment. Hint: You can provide multiple logical statements to filter() simply by separating them by commas. (This is assumed to mean BOTH conditions are true, i.e. logical and).

CO2_tibble %>%
  filter(Type == "Mississippi", Treatment == "chilled")

## filter: removed 63 rows (75%), 21 rows remaining

## # A tibble: 21 x 5
##    Plant Type        Treatment  conc uptake
##    <ord> <fct>       <fct>     <dbl>  <dbl>
##  1 Mc1   Mississippi chilled      95   10.5
##  2 Mc1   Mississippi chilled     175   14.9
##  3 Mc1   Mississippi chilled     250   18.1
##  4 Mc1   Mississippi chilled     350   18.9
##  5 Mc1   Mississippi chilled     500   19.5
##  6 Mc1   Mississippi chilled     675   22.2
##  7 Mc1   Mississippi chilled    1000   21.9
##  8 Mc2   Mississippi chilled      95    7.7
##  9 Mc2   Mississippi chilled     175   11.4
## 10 Mc2   Mississippi chilled     250   12.3
## #  with 11 more rows

Question 3

Subset the data using filter() to contain only observations (rows) from Mississippi exposed to chilled environment, and then keep only columns Plant, Type, and Treatment.

CO2_tibble %>%
  filter(Type == "Mississippi", Treatment == "chilled") %>%
  select(Plant, Type, Treatment)

## filter: removed 63 rows (75%), 21 rows remaining

## select: dropped 2 variables (conc, uptake)

## # A tibble: 21 x 3
##    Plant Type        Treatment
##    <ord> <fct>       <fct>    
##  1 Mc1   Mississippi chilled  
##  2 Mc1   Mississippi chilled  
##  3 Mc1   Mississippi chilled  
##  4 Mc1   Mississippi chilled  
##  5 Mc1   Mississippi chilled  
##  6 Mc1   Mississippi chilled  
##  7 Mc1   Mississippi chilled  
##  8 Mc2   Mississippi chilled  
##  9 Mc2   Mississippi chilled  
## 10 Mc2   Mississippi chilled  
## #  with 11 more rows

Question 4

Remove the columns uptake and conc from the data using select(). In your code, refer only to these two column names - NOT Plant, Type, etc. (Hint: you can SUBTRACT columns to remove them!)

CO2_tibble %>%
  select(- uptake, - conc) #The '-' symbol needs to be applied to each of these columns to remove them, otherwise the select() will just show that specified column.

## select: dropped 2 variables (conc, uptake)

## # A tibble: 84 x 3
##    Plant Type   Treatment 
##    <ord> <fct>  <fct>     
##  1 Qn1   Quebec nonchilled
##  2 Qn1   Quebec nonchilled
##  3 Qn1   Quebec nonchilled
##  4 Qn1   Quebec nonchilled
##  5 Qn1   Quebec nonchilled
##  6 Qn1   Quebec nonchilled
##  7 Qn1   Quebec nonchilled
##  8 Qn2   Quebec nonchilled
##  9 Qn2   Quebec nonchilled
## 10 Qn2   Quebec nonchilled
## #  with 74 more rows
…
Question 7

Create a new column using mutate() called new_column where all rows have the value 5. You do NOT need to use quotes when writing the new column name!

CO2_tibble %>%
  mutate(new_column = 5)

## mutate: new variable 'new_column' with one unique value and 0% NA

## # A tibble: 84 x 6
##    Plant Type   Treatment   conc uptake new_column
##    <ord> <fct>  <fct>      <dbl>  <dbl>      <dbl>
##  1 Qn1   Quebec nonchilled    95   16            5
##  2 Qn1   Quebec nonchilled   175   30.4          5
##  3 Qn1   Quebec nonchilled   250   34.8          5
##  4 Qn1   Quebec nonchilled   350   37.2          5
##  5 Qn1   Quebec nonchilled   500   35.3          5
##  6 Qn1   Quebec nonchilled   675   39.2          5
##  7 Qn1   Quebec nonchilled  1000   39.7          5
##  8 Qn2   Quebec nonchilled    95   13.6          5
##  9 Qn2   Quebec nonchilled   175   27.3          5
## 10 Qn2   Quebec nonchilled   250   37.1          5
## #  with 74 more rows

Question 8

CO2 concentration in this dataset is measured in mL/L - lets change the units to cL/L (i.e.milli -> centi by dividing by 10). Create a new column using mutate() called conc_cLL using mutate() which contains the concentration measured in cL/L.

CO2_tibble %>%
  mutate(conc_cLL = conc/10) # Will still work if you place conc_cLL in "" but NOT conc/10.

## mutate: new variable 'conc_cLL' with 7 unique values and 0% NA

## # A tibble: 84 x 6
##    Plant Type   Treatment   conc uptake conc_cLL
##    <ord> <fct>  <fct>      <dbl>  <dbl>    <dbl>
##  1 Qn1   Quebec nonchilled    95   16        9.5
##  2 Qn1   Quebec nonchilled   175   30.4     17.5
##  3 Qn1   Quebec nonchilled   250   34.8     25  
##  4 Qn1   Quebec nonchilled   350   37.2     35  
##  5 Qn1   Quebec nonchilled   500   35.3     50  
##  6 Qn1   Quebec nonchilled   675   39.2     67.5
##  7 Qn1   Quebec nonchilled  1000   39.7    100  
##  8 Qn2   Quebec nonchilled    95   13.6      9.5
##  9 Qn2   Quebec nonchilled   175   27.3     17.5
## 10 Qn2   Quebec nonchilled   250   37.1     25  
## #  with 74 more rows
Question 9

Modify your answer to #8 by, at the end, removing the original conc column. Save the final result to a new tibble CO2_tibble2 and examine its output simply by printing the tibble (in Rmarkdown chunks you can simply type the name of the tibble to cleanly print the first 10 rows, just like in the console!) to confirm it all worked.

CO2_tibble %>%
  mutate(conc_cLL = conc/10) %>% #This creates a unit conversion column.
  select(-conc) -> CO2_tibble2

## mutate: new variable 'conc_cLL' with 7 unique values and 0% NA

## select: dropped one variable (conc)

CO2_tibble2

## # A tibble: 84 x 5
##    Plant Type   Treatment  uptake conc_cLL
##    <ord> <fct>  <fct>       <dbl>    <dbl>
##  1 Qn1   Quebec nonchilled   16        9.5
##  2 Qn1   Quebec nonchilled   30.4     17.5
##  3 Qn1   Quebec nonchilled   34.8     25  
##  4 Qn1   Quebec nonchilled   37.2     35  
##  5 Qn1   Quebec nonchilled   35.3     50  
##  6 Qn1   Quebec nonchilled   39.2     67.5
##  7 Qn1   Quebec nonchilled   39.7    100  
##  8 Qn2   Quebec nonchilled   13.6      9.5
##  9 Qn2   Quebec nonchilled   27.3     17.5
## 10 Qn2   Quebec nonchilled   37.1     25  
## #  with 74 more rows

Question 10

Create a new column using mutate() called high_uptake. Rows where uptake is greater than or equal to 38 are considered to have high uptakes. Rows with high uptake should be given the value TRUE, and FALSE otherwise. Hint: Most of the code is identical to your solution to #6!

CO2_tibble %>%
  mutate(high_uptake = uptake>=38) #Only tells you which of the values is above (TRUE) 38 or below (FALSE) because we are looking for values equal to or greater than this number.

## mutate: new variable 'high_uptake' with 2 unique values and 0% NA

## # A tibble: 84 x 6
##    Plant Type   Treatment   conc uptake high_uptake
##    <ord> <fct>  <fct>      <dbl>  <dbl> <lgl>      
##  1 Qn1   Quebec nonchilled    95   16   FALSE      
##  2 Qn1   Quebec nonchilled   175   30.4 FALSE      
##  3 Qn1   Quebec nonchilled   250   34.8 FALSE      
##  4 Qn1   Quebec nonchilled   350   37.2 FALSE      
##  5 Qn1   Quebec nonchilled   500   35.3 FALSE      
##  6 Qn1   Quebec nonchilled   675   39.2 TRUE       
##  7 Qn1   Quebec nonchilled  1000   39.7 TRUE       
##  8 Qn2   Quebec nonchilled    95   13.6 FALSE      
##  9 Qn2   Quebec nonchilled   175   27.3 FALSE      
## 10 Qn2   Quebec nonchilled   250   37.1 FALSE      
## #  with 74 more rows

Question 11

Calculate the mean uptake as a new column. Do this in two ways: first with mutate() and then with summarize(). Examine the difference between your outputs to understand the difference between these two dplyr verbs.

CO2_tibble %>%
  mutate(mean_uptake = mean(uptake)) #Creates new column that contains the single average of all the uptake values.

## mutate: new variable 'mean_uptake' with one unique value and 0% NA

## # A tibble: 84 x 6
##    Plant Type   Treatment   conc uptake mean_uptake
##    <ord> <fct>  <fct>      <dbl>  <dbl>       <dbl>
##  1 Qn1   Quebec nonchilled    95   16          27.2
##  2 Qn1   Quebec nonchilled   175   30.4        27.2
##  3 Qn1   Quebec nonchilled   250   34.8        27.2
##  4 Qn1   Quebec nonchilled   350   37.2        27.2
##  5 Qn1   Quebec nonchilled   500   35.3        27.2
##  6 Qn1   Quebec nonchilled   675   39.2        27.2
##  7 Qn1   Quebec nonchilled  1000   39.7        27.2
##  8 Qn2   Quebec nonchilled    95   13.6        27.2
##  9 Qn2   Quebec nonchilled   175   27.3        27.2
## 10 Qn2   Quebec nonchilled   250   37.1        27.2
## #  with 74 more rows
…
